%YAML 1.1
%TAG !u! tag:unity3d.com,2011:
--- !u!114 &-7810663754138231073
MonoBehaviour:
  m_ObjectHideFlags: 11
  m_CorrespondingSourceObject: {fileID: 0}
  m_PrefabInstance: {fileID: 0}
  m_PrefabAsset: {fileID: 0}
  m_GameObject: {fileID: 0}
  m_Enabled: 1
  m_EditorHideFlags: 0
  m_Script: {fileID: 11500000, guid: da692e001514ec24dbc4cca1949ff7e8, type: 3}
  m_Name: 
  m_EditorClassIdentifier: 
  version: 12
  hdPluginSubTargetMaterialVersions:
    m_Keys: []
    m_Values: 
--- !u!21 &2100000
Material:
  serializedVersion: 8
  m_ObjectHideFlags: 0
  m_CorrespondingSourceObject: {fileID: 0}
  m_PrefabInstance: {fileID: 0}
  m_PrefabAsset: {fileID: 0}
  m_Name: Rock2_snow
  m_Shader: {fileID: -6465566751694194690, guid: 4819724840ee9444f9da841b477038ce,
    type: 3}
  m_ValidKeywords:
  - _ALPHATEST_ON
  - _DISABLE_SSR_TRANSPARENT
  - _DOUBLESIDED_ON
  - _WINDQUALITY_BEST
  m_InvalidKeywords: []
  m_LightmapFlags: 1
  m_EnableInstancingVariants: 0
  m_DoubleSidedGI: 1
  m_CustomRenderQueue: 2475
  stringTagMap:
    RenderType: TransparentCutout
  disabledShaderPasses:
  - TransparentDepthPrepass
  - TransparentDepthPostpass
  - TransparentBackface
  - RayTracingPrepass
  m_SavedProperties:
    serializedVersion: 3
    m_TexEnvs:
    - _BumpMap:
        m_Texture: {fileID: 2800000, guid: 047414cbd2e318e41a7d1557a27d36c5, type: 3}
        m_Scale: {x: 8, y: 8}
        m_Offset: {x: 0, y: 0}
    - _BumpMap2:
        m_Texture: {fileID: 2800000, guid: 3a821c28b70b2b447ab3e66e3a2229e5, type: 3}
        m_Scale: {x: 1, y: 1}
        m_Offset: {x: 0, y: 0}
    - _ExtraTex:
        m_Texture: {fileID: 0}
        m_Scale: {x: 1, y: 1}
        m_Offset: {x: 0, y: 0}
    - _MainTex:
        m_Texture: {fileID: 2800000, guid: 016e95565131cbe4bbe66d399a1c4efa, type: 3}
        m_Scale: {x: 8, y: 8}
        m_Offset: {x: 0, y: 0}
    - _MainTex2:
        m_Texture: {fileID: 2800000, guid: b7a96b9d5a1c9ff49a691b1ae2e98959, type: 3}
        m_Scale: {x: 1, y: 1}
        m_Offset: {x: 0, y: 0}
    - _SubsurfaceTex:
        m_Texture: {fileID: 0}
        m_Scale: {x: 1, y: 1}
        m_Offset: {x: 0, y: 0}
    - unity_Lightmaps:
        m_Texture: {fileID: 0}
        m_Scale: {x: 1, y: 1}
        m_Offset: {x: 0, y: 0}
    - unity_LightmapsInd:
        m_Texture: {fileID: 0}
        m_Scale: {x: 1, y: 1}
        m_Offset: {x: 0, y: 0}
    - unity_ShadowMasks:
        m_Texture: {fileID: 0}
        m_Scale: {x: 1, y: 1}
        m_Offset: {x: 0, y: 0}
    m_Ints: []
    m_Floats:
    - Diffusion_Profile: 0
    - EFFECT_BILLBOARD: 0
    - EFFECT_EXTRA_TEX: 1
    - _AddPrecomputedVelocity: 0
    - _AlphaClipThreshold: 0.1
    - _AlphaCutoffEnable: 1
    - _AlphaDstBlend: 0
    - _AlphaSrcBlend: 1
    - _AlphaToMask: 0
    - _AlphaToMaskInspectorValue: 0
    - _BlendMode: 0
    - _ConservativeDepthOffsetEnable: 0
    - _CullMode: 0
    - _CullModeForward: 0
    - _DepthOffsetEnable: 0
    - _DoubleSidedEnable: 1
    - _DoubleSidedGIMode: 0
    - _DoubleSidedNormalMode: 0
    - _DstBlend: 0
    - _EnableBlendModePreserveSpecularLighting: 1
    - _EnableFogOnTransparent: 1
    - _Glossiness: 0.5
    - _HueVariationKwToggle: 1
    - _NormalMapKwToggle: 1
    - _Opacity: 1
    - _OpaqueCullMode: 2
    - _RayTracing: 0
    - _ReceivesSSR: 1
    - _ReceivesSSRTransparent: 0
    - _RefractionModel: 0
    - _RenderQueueType: 1
    - _RequireSplitLighting: 0
    - _SrcBlend: 1
    - _StencilRef: 0
    - _StencilRefDepth: 8
    - _StencilRefDistortionVec: 4
    - _StencilRefGBuffer: 10
    - _StencilRefMV: 40
    - _StencilWriteMask: 6
    - _StencilWriteMaskDepth: 8
    - _StencilWriteMaskDistortionVec: 4
    - _StencilWriteMaskGBuffer: 14
    - _StencilWriteMaskMV: 40
    - _SubsurfaceScale: 1
    - _SupportDecals: 1
    - _SurfaceType: 0
    - _TransparentBackfaceEnable: 0
    - _TransparentCullMode: 2
    - _TransparentDepthPostpassEnable: 0
    - _TransparentDepthPrepassEnable: 0
    - _TransparentSortPriority: 0
    - _TransparentWritingMotionVec: 0
    - _TransparentZWrite: 0
    - _UseShadowThreshold: 0
    - _WINDQUALITY: 4
    - _WindQuality: 1
    - _ZTestDepthEqualForOpaque: 3
    - _ZTestGBuffer: 3
    - _ZTestTransparent: 4
    - _ZWrite: 1
    m_Colors:
    - Diffusion_Profile_Asset: {r: 0, g: 0, b: 0, a: 0}
    - _Color: {r: 1, g: 1, b: 1, a: 1}
    - _DoubleSidedConstants: {r: -1, g: -1, b: -1, a: 0}
    - _EmissionColor: {r: 1, g: 1, b: 1, a: 1}
    - _HueVariationColor: {r: 1, g: 0.5, b: 0, a: 0.2}
  m_BuildTextureStacks: []
